0
0
3
3
6
1203
1203
1203
2400
2400
2400
2403
2403
2403
2403
27540
27540
27543
27543
27600
27600
27603
27603
52740
52740
52797
52797
77934
77991
78048
78048
78048
78048
78048
103185
128322
128379
128382
128385
128385
128385
128442
129639
129696
129699
129699
154836
154836
154836
154839
154896
156093
156093
157290
157293
182430
182430
182433
182433
183630
183633
183633
183633
183633
183633
183690
183747
184944
184944
184947
184947
186144
211281
212478
212535
212535
212535
212535
212535
212535
212535
237672
237672
237672
237672
237729
237732
237732
237732
262869
262869
264066
264123
264123
264123
265320
265377
265377
265380
265380
265380
265437
265437
265494
265497
265554
265554
265554
265554
290691
